moore/simulation/qsim/moore.msim.vcd
$comment
	File created using the following command:
		vcd file moore.msim.vcd -direction
$end
$date
	Tue Jun 20 22:01:26 2023
$end
$version
	ModelSim Version 10.1d
$end
$timescale
	1ps
$end
$scope module moore_vlg_vec_tst $end
$var reg 1 ! CLK $end
$var reg 1 " Win $end
$var reg 1 # Xin $end
$var wire 1 $ Z $end
$var wire 1 % sampler $end
$scope module i1 $end
$var wire 1 & gnd $end
$var wire 1 ' vcc $end
$var wire 1 ( unknown $end
$var tri1 1 ) devclrn $end
$var tri1 1 * devpor $end
$var tri1 1 + devoe $end
$var wire 1 , inst12~0_combout $end
$var wire 1 - inst13~0_combout $end
$var wire 1 . CLK~input_o $end
$var wire 1 / Z~output_o $end
$var wire 1 0 Win~input_o $end
$var wire 1 1 inst12~1_combout $end
$var wire 1 2 inst~q $end
$var wire 1 3 Xin~input_o $end
$var wire 1 4 inst13~1_combout $end
$var wire 1 5 inst1~q $end
$var wire 1 6 inst14~0_combout $end
$var wire 1 7 inst14~1_combout $end
$var wire 1 8 inst2~q $end
$var wire 1 9 inst22~combout $end
$upscope $end
$upscope $end
$enddefinitions $end
#0
$dumpvars
0!
0"
0#
0$
x%
0&
1'
x(
1)
1*
1+
0,
0-
0.
0/
00
01
02
03
04
05
06
07
08
09
$end
#10000
1#
13
0%
16
17
#20000
1!
1.
1%
18
#30000
0#
03
0%
06
07
#40000
0!
0.
1%
#50000
1"
10
0%
1-
14
#60000
1!
1.
1%
08
15
0-
04
#70000
0"
00
0%
16
1-
17
14
#80000
0!
0.
1%
#100000
1!
1.
0%
18
19
1/
1$
#120000
0!
0.
1%
#140000
1!
1.
0%
#160000
0!
0.
1%
#180000
1!
1.
0%
#200000
0!
0.
1%
#220000
1!
1.
0%
#240000
0!
0.
1%
#260000
1!
1.
0%
#280000
0!
0.
1%
#300000
1!
1.
0%
#320000
0!
0.
1%
#340000
1!
1.
0%
#360000
0!
0.
1%
#380000
1!
1.
0%
#400000
0!
0.
1%
#420000
1!
1.
0%
#440000
0!
0.
1%
#460000
1!
1.
0%
#480000
0!
0.
1%
#500000
1!
1.
0%
#520000
0!
0.
1%
#540000
1!
1.
0%
#560000
0!
0.
1%
#580000
1!
1.
0%
#600000
0!
0.
1%
#620000
1!
1.
0%
#640000
0!
0.
1%
#660000
1!
1.
0%
#680000
0!
0.
1%
#700000
1!
1.
0%
#720000
0!
0.
1%
#740000
1!
1.
0%
#760000
0!
0.
1%
#780000
1!
1.
0%
#800000
0!
0.
1%
#820000
1!
1.
0%
#840000
0!
0.
1%
#860000
1!
1.
0%
#880000
0!
0.
1%
#900000
1!
1.
0%
#920000
0!
0.
1%
#940000
1!
1.
0%
#960000
0!
0.
1%
#980000
1!
1.
0%
