mealy/simulation/qsim/mealy.msim.vcd
$comment
	File created using the following command:
		vcd file mealy.msim.vcd -direction
$end
$date
	Mon Jun 19 22:51:39 2023
$end
$version
	ModelSim Version 10.1d
$end
$timescale
	1ps
$end
$scope module mealy_vlg_vec_tst $end
$var reg 1 ! clock $end
$var reg 1 " reset $end
$var reg 1 # X $end
$var wire 1 $ Z [1] $end
$var wire 1 % Z [0] $end
$var wire 1 & sampler $end
$scope module i1 $end
$var wire 1 ' gnd $end
$var wire 1 ( vcc $end
$var wire 1 ) unknown $end
$var tri1 1 * devclrn $end
$var tri1 1 + devpor $end
$var tri1 1 , devoe $end
$var wire 1 - clock~input_o $end
$var wire 1 . Z[0]~output_o $end
$var wire 1 / Z[1]~output_o $end
$var wire 1 0 X~input_o $end
$var wire 1 1 reset~input_o $end
$var wire 1 2 reg_fstate.state10~0_combout $end
$var wire 1 3 fstate.state10~q $end
$var wire 1 4 reg_fstate.state9~0_combout $end
$var wire 1 5 fstate.state9~q $end
$var wire 1 6 fstate.state0~0_combout $end
$var wire 1 7 fstate.state0~q $end
$var wire 1 8 reg_fstate.state5~0_combout $end
$var wire 1 9 fstate.state5~q $end
$var wire 1 : reg_fstate.state6~0_combout $end
$var wire 1 ; fstate.state6~q $end
$var wire 1 < reg_fstate.state7~0_combout $end
$var wire 1 = reg_fstate.state7~1_combout $end
$var wire 1 > fstate.state7~q $end
$var wire 1 ? reg_fstate.state1~1_combout $end
$var wire 1 @ reg_fstate.state1~2_combout $end
$var wire 1 A fstate.state1~q $end
$var wire 1 B reg_fstate.state2~0_combout $end
$var wire 1 C fstate.state2~q $end
$var wire 1 D reg_fstate.state3~0_combout $end
$var wire 1 E fstate.state3~q $end
$var wire 1 F reg_fstate.state4~0_combout $end
$var wire 1 G fstate.state4~q $end
$var wire 1 H reg_fstate.state1~0_combout $end
$var wire 1 I reg_fstate.state8~0_combout $end
$var wire 1 J fstate.state8~q $end
$var wire 1 K Z~0_combout $end
$var wire 1 L Z~1_combout $end
$upscope $end
$upscope $end
$enddefinitions $end
#0
$dumpvars
0!
0"
0#
0%
0$
x&
0'
1(
x)
1*
1+
1,
0-
0.
0/
00
01
02
03
04
05
16
07
08
09
0:
0;
0<
0=
0>
1?
1@
0A
0B
0C
0D
0E
0F
0G
1H
0I
0J
0K
0L
$end
#20000
1!
1-
0&
1A
17
#30000
1#
10
1&
1B
0?
0@
#40000
0!
0-
0&
#60000
1!
1-
1&
1C
0A
1D
0B
#80000
0!
0-
0&
#100000
1!
1-
1&
1E
0C
1F
0D
#120000
0!
0-
0&
#140000
1!
1-
1&
1G
0E
0H
1<
0F
1L
1=
1/
1$
#160000
0!
0-
0&
#180000
1!
1-
1&
0G
1>
0L
0/
0$
#200000
0!
0-
0&
#220000
1!
1-
1&
#240000
0!
0-
0&
#260000
1!
1-
1&
#280000
0!
0-
0&
#300000
1!
1-
1&
#320000
0!
0-
0&
#340000
1!
1-
1&
#360000
0!
0-
0&
#380000
1!
1-
1&
#400000
0!
0-
0&
#420000
1!
1-
1&
#440000
0!
0-
0&
#460000
1!
1-
1&
#480000
0!
0-
0&
#500000
1!
1-
1&
#520000
0!
0-
0&
#540000
1!
1-
1&
#560000
0!
0-
0&
#580000
1!
1-
1&
#600000
0!
0-
0&
#620000
1!
1-
1&
#640000
0!
0-
0&
#660000
1!
1-
1&
#680000
0!
0-
0&
#700000
1!
1-
1&
#720000
0!
0-
0&
#740000
1!
1-
1&
#760000
0!
0-
0&
#780000
1!
1-
1&
#800000
0!
0-
0&
#820000
1!
1-
1&
#840000
0!
0-
0&
#860000
1!
1-
1&
#880000
0!
0-
0&
#900000
1!
1-
1&
#920000
0!
0-
0&
#940000
1!
1-
1&
#960000
0!
0-
0&
#980000
1!
1-
1&
